<?xml version="1.0" encoding="utf-8"?>
<!-- Generator: Adobe Illustrator 16.0.0, SVG Export Plug-In . SVG Version: 6.00 Build 0)  -->
<!DOCTYPE svg PUBLIC "-//W3C//DTD SVG 1.1//EN" "http://www.w3.org/Graphics/SVG/1.1/DTD/svg11.dtd">
<svg version="1.1" id="Layer_1" xmlns="http://www.w3.org/2000/svg" xmlns:xlink="http://www.w3.org/1999/xlink" x="0px" y="0px"
	 width="313.291px" height="67.088px" viewBox="0 0 313.291 67.088" enable-background="new 0 0 313.291 67.088"
	 xml:space="preserve">
<g>
	<rect x="-1.962" y="-0.924" fill="#04EFEF" width="160.025" height="68"/>
</g>
<g>
	<path fill="#FFFFFF" d="M40.697,10.252L33.988,56.16h-6.709l-4.102-25.986c-0.04-0.938-0.117-2.334-0.234-4.189
		c0,0.938-0.078,2.334-0.234,4.189L18.636,56.16h-6.738L5.189,10.252h6.943l3.545,27.188c0.059,0.938,0.136,2.334,0.234,4.189
		c0.019-0.938,0.107-2.334,0.264-4.189l3.955-27.188h5.625l3.955,27.188c0.059,0.938,0.146,2.334,0.264,4.189
		c0.019-0.938,0.098-2.334,0.234-4.189l3.545-27.188H40.697z"/>
	<path fill="#FFFFFF" d="M51.507,56.102h-6.855v-45.85h6.855V56.102z"/>
	<path fill="#FFFFFF" d="M80.365,56.102h-6.006L63.373,27.244c0.293,1.406,0.439,2.51,0.439,3.311v25.547h-6.68v-45.85h6.006
		l10.986,28.271c-0.293-1.406-0.439-2.51-0.439-3.311V10.252h6.68V56.102z"/>
	<path fill="#FFFFFF" d="M105.794,16.316h-7.559v39.785H91.41V16.316h-7.559v-6.064h21.943V16.316z"/>
	<path fill="#FFFFFF" d="M128.294,56.102h-19.014v-45.85h18.838v6.064h-11.982v13.389h10.313v5.947h-10.313v14.385h12.158V56.102z"
		/>
	<path fill="#FFFFFF" d="M156.449,56.102H149.3l-7.559-21.299v-4.131h6.738V16.141h-8.643v39.961h-6.855v-45.85h18.193
		c2.754,0,4.131,1.406,4.131,4.219v16.67c0,1.934-0.655,3.184-1.963,3.75c-0.703,0.293-2.188,0.439-4.453,0.439L156.449,56.102z"/>
	<path fill="#04EFEF" d="M179.652,56.102h-19.014v-45.85h18.838v6.064h-11.982v13.389h10.313v5.947h-10.313v14.385h12.158V56.102z"
		/>
	<path fill="#04EFEF" d="M207.19,56.102h-7.412l-5.039-16.143l-5.068,16.143h-7.295v-0.234l8.555-23.232
		c-5.371-14.844-8.047-22.305-8.027-22.383h7.324l4.57,14.941l4.6-14.941h7.266v0.264l-8.027,21.943L207.19,56.102z"/>
	<path fill="#04EFEF" d="M232.884,35.213c0,2.852-1.396,4.277-4.189,4.277h-11.104v16.611h-6.855v-45.85h17.959
		c2.793,0,4.189,1.406,4.189,4.219V35.213z M225.97,33.602V16.141h-8.379v17.461H225.97z"/>
	<path fill="#04EFEF" d="M256.761,56.102h-19.014v-45.85h18.838v6.064h-11.982v13.389h10.313v5.947h-10.313v14.385h12.158V56.102z"
		/>
	<path fill="#04EFEF" d="M284.915,56.102h-7.148l-7.559-21.299v-4.131h6.738V16.141h-8.643v39.961h-6.855v-45.85h18.193
		c2.754,0,4.131,1.406,4.131,4.219v16.67c0,1.934-0.654,3.184-1.963,3.75c-0.703,0.293-2.188,0.439-4.453,0.439L284.915,56.102z"/>
	<path fill="#04EFEF" d="M309.026,16.316h-7.559v39.785h-6.826V16.316h-7.559v-6.064h21.943V16.316z"/>
</g>
</svg>
